UART/uart_tx_wave.vcd
$date
     May 10, 2026       23:44:42
$end

$version
 SystemC 2.3.3-Accellera --- May  8 2026 22:03:09
$end

$timescale
     1 ps
$end

$scope module SystemC $end
$var wire    1  aaaaa  clk       $end
$var wire    1  aaaab  rst       $end
$var wire    1  aaaac  tx_start       $end
$var wire    8  aaaad  tx_data [7:0]  $end
$var wire    1  aaaae  tx       $end
$var wire    1  aaaaf  tx_done       $end
$upscope $end
$enddefinitions  $end

$comment
All initial values are dumped below at time 0 sec = 0 timescale units.
$end

$dumpvars
1aaaaa
1aaaab
0aaaac
b0 aaaad
1aaaae
0aaaaf
$end

#500
0aaaaa

#1000
1aaaaa

#1500
0aaaaa

#2000
1aaaaa
0aaaab

#2500
0aaaaa

#3000
1aaaaa

#3500
0aaaaa

#4000
1aaaaa
1aaaac
b1010011 aaaad

#4500
0aaaaa

#5000
1aaaaa
0aaaac
0aaaae

#5500
0aaaaa

#6000
1aaaaa
1aaaae

#6500
0aaaaa

#7000
1aaaaa

#7500
0aaaaa

#8000
1aaaaa
0aaaae

#8500
0aaaaa

#9000
1aaaaa

#9500
0aaaaa

#10000
1aaaaa
1aaaae

#10500
0aaaaa

#11000
1aaaaa
0aaaae

#11500
0aaaaa

#12000
1aaaaa
1aaaae

#12500
0aaaaa

#13000
1aaaaa
0aaaae

#13500
0aaaaa

#14000
1aaaaa
1aaaae
1aaaaf

#14500
0aaaaa

#15000
1aaaaa
0aaaaf

#15500
0aaaaa

#16000
1aaaaa

#16500
0aaaaa

#17000
1aaaaa

#17500
0aaaaa

#18000
1aaaaa

#18500
0aaaaa

#19000
1aaaaa

#19500
0aaaaa

#20000
1aaaaa
1aaaac
b10100101 aaaad

#20500
0aaaaa

#21000
1aaaaa
0aaaac
0aaaae

#21500
0aaaaa

#22000
1aaaaa
1aaaae

#22500
0aaaaa

#23000
1aaaaa
0aaaae

#23500
0aaaaa

#24000
1aaaaa
1aaaae

#24500
0aaaaa

#25000
1aaaaa
0aaaae

#25500
0aaaaa

#26000
1aaaaa

#26500
0aaaaa

#27000
1aaaaa
1aaaae

#27500
0aaaaa

#28000
1aaaaa
0aaaae

#28500
0aaaaa

#29000
1aaaaa
1aaaae

#29500
0aaaaa

#30000
1aaaaa
1aaaaf

#30500
0aaaaa

#31000
1aaaaa
0aaaaf

